Read more about Radiohead on Last.fm.
    
    
User-contributed text is available under the Creative Commons By-SA License and may also be available under the GNU FDL.]]>

Similar artists:

 * Thom Yorke (http://www.last.fm/music/Thom+Yorke)
 * Phil Selway (http://www.last.fm/music/Atoms+for+Peace)
 * Ed O'Brien (http://www.last.fm/music/Jonny+Greenwood)
 * Colin Greenwood (http://www.last.fm/music/Sigur+R%C3%B3s)
 * Jonny Greenwood (http://www.last.fm/music/Portishead)
 * Thom Yorke (http://www.last.fm/tag/alternative)
 * Atoms for Peace (http://www.last.fm/tag/alternative%20rock)
 * Jonny Greenwood (http://www.last.fm/tag/rock)
 * Sigur Rós (http://www.last.fm/tag/indie)
 * Portishead (http://www.last.fm/tag/electronic)
 * alternative (l version="1.0" encoding="utf-8"?>
<lfm status="ok">
<artist>
  <name>Radiohead</name>
          <mbid>a74b1b7f-71a5-4011-9441-d0b5e4122711</mbid>
            <bandmembers>
                    <member>
                <name>Thom Yorke</name>
                                    <yearfrom>1986</yearfrom>
                                            </member>
                    <member>
                <name>Phil Selway</name>
                                    <yearfrom>1986</yearfrom>
                                            </member>
                    <member>
                <name>Ed O'Brien</name>
                                    <yearfrom>1986</yearfrom>
                                            </member>
                    <member>
                <name>Colin Greenwood</name>
                                    <yearfrom>1986</yearfrom>
                                            </member>
                    <member>
                <name>Jonny Greenwood</name>
                                    <yearfrom>1986</yearfrom>
                                            </member>
            </bandmembers>
        <url>http://www.last.fm/music/Radiohead</url>
  <image size="small">http://userserve-ak.last.fm/serve/34/24688757.png</image>
  <image size="medium">http://userserve-ak.last.fm/serve/64/24688757.png</image>
  <image size="large">http://userserve-ak.last.fm/serve/126/24688757.png</image>
  <image size="extralarge">http://userserve-ak.last.fm/serve/252/24688757.png</image>
  <image size="mega">http://userserve-ak.last.fm/serve/_/24688757/Radiohead.png</image>
  <streamable>1</streamable>
  <ontour>0</ontour>
  <stats>
    <listeners>4044547</listeners>
    <playcount>369752993</playcount>
      </stats>

  <similar>
	    <artist>
	  <name>Thom Yorke</name>
	  <url>http://www.last.fm/music/Thom+Yorke</url>
	  <image size="small">http://userserve-ak.last.fm/serve/34/4556396.gif</image>
	  <image size="medium">http://userserve-ak.last.fm/serve/64/4556396.gif</image>
	  <image size="large">http://userserve-ak.last.fm/serve/126/4556396.gif</image>
	  <image size="extralarge">http://userserve-ak.last.fm/serve/252/4556396.gif</image>
	  <image size="mega">http://userserve-ak.last.fm/serve/500/4556396/Thom+Yorke.gif</image>
	  
	        	</artist>
    <artist>
	  <name>Atoms for Peace</name>
	  <url>http://www.last.fm/music/Atoms+for+Peace</url>
	  <image size="small">http://userserve-ak.last.fm/serve/34/42659249.jpg</image>
	  <image size="medium">http://userserve-ak.last.fm/serve/64/42659249.jpg</image>
	  <image size="large">http://userserve-ak.last.fm/serve/126/42659249.jpg</image>
	  <image size="extralarge">http://userserve-ak.last.fm/serve/252/42659249.jpg</image>
	  <image size="mega">http://userserve-ak.last.fm/serve/_/42659249/Atoms+for+Peace+yorke452.jpg</image>
	  
	        	</artist>
    <artist>
	  <name>Jonny Greenwood</name>
	  <url>http://www.last.fm/music/Jonny+Greenwood</url>
	  <image size="small">http://userserve-ak.last.fm/serve/34/3748898.jpg</image>
	  <image size="medium">http://userserve-ak.last.fm/serve/64/3748898.jpg</image>
	  <image size="large">http://userserve-ak.last.fm/serve/126/3748898.jpg</image>
	  <image size="extralarge">http://userserve-ak.last.fm/serve/252/3748898.jpg</image>
	  <image size="mega">http://userserve-ak.last.fm/serve/500/3748898/Jonny+Greenwood+0044.jpg</image>
	  
	        	</artist>
    <artist>
	  <name>Sigur Rós</name>
	  <url>http://www.last.fm/music/Sigur+R%C3%B3s</url>
	  <image size="small">http://userserve-ak.last.fm/serve/34/97479.jpg</image>
	  <image size="medium">http://userserve-ak.last.fm/serve/64/97479.jpg</image>
	  <image size="large">http://userserve-ak.last.fm/serve/126/97479.jpg</image>
	  <image size="extralarge">http://userserve-ak.last.fm/serve/252/97479.jpg</image>
	  <image size="mega">http://userserve-ak.last.fm/serve/500/97479/Sigur+Rs.jpg</image>
	  
	        	</artist>
    <artist>
	  <name>Portishead</name>
	  <url>http://www.last.fm/music/Portishead</url>
	  <image size="small">http://userserve-ak.last.fm/serve/34/68401556.png</image>
	  <image size="medium">http://userserve-ak.last.fm/serve/64/68401556.png</image>
	  <image size="large">http://userserve-ak.last.fm/serve/126/68401556.png</image>
	  <image size="extralarge">http://userserve-ak.last.fm/serve/252/68401556.png</image>
	  <image size="mega">http://userserve-ak.last.fm/serve/_/68401556/Portishead+PNG.png</image>
	  
	        	</artist>
  </similar>
    <tags>
        <tag>
	  <name>alternative</name>
	  <url>http://www.last.fm/tag/alternative</url>
	</tag>
        <tag>
	  <name>alternative rock</name>
	  <url>http://www.last.fm/tag/alternative%20rock</url>
	</tag>
        <tag>
	  <name>rock</name>
	  <url>http://www.last.fm/tag/rock</url>
	</tag>
        <tag>
	  <name>indie</name>
	  <url>http://www.last.fm/tag/indie</url>
	</tag>
        <tag>
	  <name>electronic</name>
	  <url>http://www.last.fm/tag/electronic</url>
	</tag>
      </tags>
      <bio>
        <links>
        <link rel="original" href="http://www.last.fm/music/Radiohead/+wiki" />
    </links>
                                    <published>Fri, 30 Jan 2009 20:18:28 +0000</published>
    <summary>
        <![CDATA[        Radiohead are an English alternative rock band from Abingdon, Oxfordshire. The band is composed of Thom Yorke (lead vocals, rhythm guitar, piano, beats), Jonny Greenwood (lead guitar, keyboard, other instruments), Ed O'Brien (guitar, backing vocals), Colin Greenwood (bass guitar) and Phil Selway (drums, percussion).  Radiohead released their first single, &quot;Creep,&quot; in 1992. The song was initially unsuccessful, but it became a worldwide hit several months after the release of their debut album, Pablo Honey (1993).

        <a href="http://www.last.fm/music/Radiohead">Read more about Radiohead on Last.fm</a>.
    ]]>
    </summary>
    <content>
            <![CDATA[        Radiohead are an English alternative rock band from Abingdon, Oxfordshire. The band is composed of Thom Yorke (lead vocals, rhythm guitar, piano, beats), Jonny Greenwood (lead guitar, keyboard, other instruments), Ed O'Brien (guitar, backing vocals), Colin Greenwood (bass guitar) and Phil Selway (drums, percussion).  Radiohead released their first single, &quot;Creep,&quot; in 1992. The song was initially unsuccessful, but it became a worldwide hit several months after the release of their debut album, Pablo Honey (1993).

        <a href="http://www.last.fm/music/Radiohead">Read more about Radiohead on Last.fm</a>.
    
    
User-contributed text is available under the Creative Commons By-SA License and may also be available under the GNU FDL.]]>
    </content>
            <placeformed>Abingdon, Oxfordshire, United Kingdom</placeformed>                        <yearformed>1986</yearformed>
            <formationlist>
                    <formation>
                <yearfrom>1986</yearfrom>
                <yearto></yearto>
            </formation>
            </formationlist>
      </bio>
  </artist></lfm>
)
 * alternative rock (http://www.last.fm/music/Radiohead)
 * rock (http://www.last.fm/music/Thom+Yorke)
 * indie (http://www.last.fm/music/Atoms+for+Peace)
 * electronic (http://www.last.fm/music/Jonny+Greenwood)

http://www.last.fm/music/Radiohead